Emissão Termoiônica/Retificação_T1710_100Hz/Potencial de contato/ALL0007/F0007CH1.CSV

Record Length,2.500000e+03,,   0.000210000000,  -8.48000,
Sample Interval,1.000000e-06,,   0.000211000000,  -8.48000,
Trigger Point,-2.100000000000e+02,,   0.000212000000,  -8.48000,
,,,   0.000213000000,  -8.48000,
,,,   0.000214000000,  -8.48000,
,,,   0.000215000000,  -8.48000,
Source,CH1,,   0.000216000000,  -8.48000,
Vertical Units,V,,   0.000217000000,  -8.48000,
Vertical Scale,2.000000e+00,,   0.000218000000,  -8.48000,
Vertical Offset,-4.000000e-01,,   0.000219000000,  -8.48000,
Horizontal Units,s,,   0.000220000000,  -8.48000,
Horizontal Scale,2.500000e-04,,   0.000221000000,  -8.48000,
Pt Fmt,Y,,   0.000222000000,  -8.48000,
Yzero,0.000000e+00,,   0.000223000000,  -8.48000,
Probe Atten,1.000000e+00,,   0.000224000000,  -8.40000,
Model Number,TDS1001C-30EDU,,   0.000225000000,  -8.40000,
Serial Number,C010544,,   0.000226000000,  -8.40000,
Firmware Version,FV:v25.11,,   0.000227000000,  -8.40000,
,,,0.000228000000,  -8.40000,
,,,0.000229000000,  -8.40000,
,,,0.000230000000,  -8.40000,
,,,0.000231000000,  -8.40000,
,,,0.000232000000,  -8.40000,
,,,0.000233000000,  -8.40000,
,,,0.000234000000,  -8.40000,
,,,0.000235000000,  -8.40000,
,,,0.000236000000,  -8.40000,
,,,0.000237000000,  -8.40000,
,,,0.000238000000,  -8.40000,
,,,0.000239000000,  -8.40000,
,,,0.000240000000,  -8.32000,
,,,0.000241000000,  -8.32000,
,,,0.000242000000,  -8.32000,
,,,0.000243000000,  -8.32000,
,,,0.000244000000,  -8.32000,
,,,0.000245000000,  -8.32000,
,,,0.000246000000,  -8.32000,
,,,0.000247000000,  -8.32000,
,,,0.000248000000,  -8.32000,
,,,0.000249000000,  -8.32000,
,,,0.000250000000,  -8.32000,
,,,0.000251000000,  -8.32000,
,,,0.000252000000,  -8.32000,
,,,0.000253000000,  -8.32000,
,,,0.000254000000,  -8.32000,
,,,0.000255000000,  -8.32000,
,,,0.000256000000,  -8.24000,
,,,0.000257000000,  -8.24000,
,,,0.000258000000,  -8.24000,
,,,0.000259000000,  -8.24000,
,,,0.000260000000,  -8.24000,
,,,0.000261000000,  -8.24000,
,,,0.000262000000,  -8.24000,
,,,0.000263000000,  -8.24000,
,,,0.000264000000,  -8.24000,
,,,0.000265000000,  -8.24000,
,,,0.000266000000,  -8.24000,
,,,0.000267000000,  -8.24000,
,,,0.000268000000,  -8.24000,
,,,0.000269000000,  -8.24000,
,,,0.000270000000,  -8.24000,
,,,0.000271000000,  -8.24000,
,,,0.000272000000,  -8.24000,
,,,0.000273000000,  -8.16000,
,,,0.000274000000,  -8.16000,
,,,0.000275000000,  -8.16000,
,,,0.000276000000,  -8.16000,
,,,0.000277000000,  -8.16000,
,,,0.000278000000,  -8.16000,
,,,0.000279000000,  -8.16000,
,,,0.000280000000,  -8.16000,
,,,0.000281000000,  -8.16000,
,,,0.000282000000,  -8.16000,
,,,0.000283000000,  -8.16000,
,,,0.000284000000,  -8.16000,
,,,0.000285000000,  -8.16000,
,,,0.000286000000,  -8.16000,
,,,0.000287000000,  -8.16000,
,,,0.000288000000,  -8.16000,
,,,0.000289000000,  -8.08000,
,,,0.000290000000,  -8.08000,
,,,0.000291000000,  -8.08000,
,,,0.000292000000,  -8.08000,
,,,0.000293000000,  -8.08000,
,,,0.000294000000,  -8.08000,
,,,0.000295000000,  -8.08000,
,,,0.000296000000,  -8.08000,
,,,0.000297000000,  -8.08000,
,,,0.000298000000,  -8.08000,
,,,0.000299000000,  -8.08000,
,,,0.000300000000,  -8.08000,
,,,0.000301000000,  -8.08000,
,,,0.000302000000,  -8.08000,
,,,0.000303000000,  -8.08000,
,,,0.000304000000,  -8.08000,
,,,0.000305000000,  -8.00000,
,,,0.000306000000,  -8.00000,
,,,0.000307000000,  -8.00000,
,,,0.000308000000,  -8.00000,
,,,0.000309000000,  -8.00000,
,,,0.000310000000,  -8.00000,
,,,0.000311000000,  -8.00000,
,,,0.000312000000,  -8.00000,
,,,0.000313000000,  -8.00000,
,,,0.000314000000,  -8.00000,
,,,0.000315000000,  -8.00000,
,,,0.000316000000,  -8.00000,
,,,0.000317000000,  -8.00000,
,,,0.000318000000,  -8.00000,
,,,0.000319000000,  -8.00000,
,,,0.000320000000,  -8.00000,
,,,0.000321000000,  -7.92000,
,,,0.000322000000,  -7.92000,
,,,0.000323000000,  -7.92000,
,,,0.000324000000,  -7.92000,
,,,0.000325000000,  -7.92000,
,,,0.000326000000,  -7.92000,
,,,0.000327000000,  -7.92000,
,,,0.000328000000,  -7.92000,
,,,0.000329000000,  -7.92000,
,,,0.000330000000,  -7.92000,
,,,0.000331000000,  -7.92000,
,,,0.000332000000,  -7.92000,
,,,0.000333000000,  -7.92000,
,,,0.000334000000,  -7.92000,
,,,0.000335000000,  -7.92000,
,,,0.000336000000,  -7.84000,
,,,0.000337000000,  -7.84000,
,,,0.000338000000,  -7.84000,
,,,0.000339000000,  -7.84000,
,,,0.000340000000,  -7.84000,
,,,0.000341000000,  -7.84000,
,,,0.000342000000,  -7.84000,
,,,0.000343000000,  -7.84000,
,,,0.000344000000,  -7.84000,
,,,0.000345000000,  -7.84000,
,,,0.000346000000,  -7.84000,
,,,0.000347000000,  -7.84000,
,,,0.000348000000,  -7.84000,
,,,0.000349000000,  -7.84000,
,,,0.000350000000,  -7.84000,
,,,0.000351000000,  -7.76000,
,,,0.000352000000,  -7.76000,
,,,0.000353000000,  -7.76000,
,,,0.000354000000,  -7.76000,
,,,0.000355000000,  -7.76000,
,,,0.000356000000,  -7.76000,
,,,0.000357000000,  -7.76000,
,,,0.000358000000,  -7.76000,
,,,0.000359000000,  -7.76000,
,,,0.000360000000,  -7.76000,
,,,0.000361000000,  -7.76000,
,,,0.000362000000,  -7.76000,
,,,0.000363000000,  -7.76000,
,,,0.000364000000,  -7.76000,
,,,0.000365000000,  -7.76000,
,,,0.000366000000,  -7.68000,
,,,0.000367000000,  -7.68000,
,,,0.000368000000,  -7.68000,
,,,0.000369000000,  -7.68000,
,,,0.000370000000,  -7.68000,
,,,0.000371000000,  -7.68000,
,,,0.000372000000,  -7.68000,
,,,0.000373000000,  -7.68000,
,,,0.000374000000,  -7.68000,
,,,0.000375000000,  -7.68000,
,,,0.000376000000,  -7.68000,
,,,0.000377000000,  -7.68000,
,,,0.000378000000,  -7.68000,
,,,0.000379000000,  -7.68000,
,,,0.000380000000,  -7.60000,
,,,0.000381000000,  -7.60000,
,,,0.000382000000,  -7.60000,
,,,0.000383000000,  -7.60000,
,,,0.000384000000,  -7.60000,
,,,0.000385000000,  -7.60000,
,,,0.000386000000,  -7.60000,
,,,0.000387000000,  -7.60000,
,,,0.000388000000,  -7.60000,
,,,0.000389000000,  -7.60000,
,,,0.000390000000,  -7.60000,
,,,0.000391000000,  -7.60000,
,,,0.000392000000,  -7.60000,
,,,0.000393000000,  -7.60000,
,,,0.000394000000,  -7.60000,
,,,0.000395000000,  -7.60000,
,,,0.000396000000,  -7.52000,
,,,0.000397000000,  -7.52000,
,,,0.000398000000,  -7.52000,
,,,0.000399000000,  -7.52000,
,,,0.000400000000,  -7.52000,
,,,0.000401000000,  -7.52000,
,,,0.000402000000,  -7.52000,
,,,0.000403000000,  -7.52000,
,,,0.000404000000,  -7.52000,
,,,0.000405000000,  -7.52000,
,,,0.000406000000,  -7.52000,
,,,0.000407000000,  -7.52000,
,,,0.000408000000,  -7.52000,
,,,0.000409000000,  -7.52000,
,,,0.000410000000,  -7.44000,
,,,0.000411000000,  -7.44000,
,,,0.000412000000,  -7.44000,
,,,0.000413000000,  -7.44000,
,,,0.000414000000,  -7.44000,
,,,0.000415000000,  -7.44000,
,,,0.000416000000,  -7.44000,
,,,0.000417000000,  -7.44000,
,,,0.000418000000,  -7.44000,
,,,0.000419000000,  -7.44000,
,,,0.000420000000,  -7.44000,
,,,0.000421000000,  -7.44000,
,,,0.000422000000,  -7.44000,
,,,0.000423000000,  -7.44000,
,,,0.000424000000,  -7.36000,
,,,0.000425000000,  -7.36000,
,,,0.000426000000,  -7.36000,
,,,0.000427000000,  -7.36000,
,,,0.000428000000,  -7.36000,
,,,0.000429000000,  -7.36000,
,,,0.000430000000,  -7.36000,
,,,0.000431000000,  -7.36000,
,,,0.000432000000,  -7.36000,
,,,0.000433000000,  -7.36000,
,,,0.000434000000,  -7.36000,
,,,0.000435000000,  -7.36000,
,,,0.000436000000,  -7.36000,
,,,0.000437000000,  -7.36000,
,,,0.000438000000,  -7.36000,
,,,0.000439000000,  -7.28000,
,,,0.000440000000,  -7.28000,
,,,0.000441000000,  -7.28000,
,,,0.000442000000,  -7.28000,
,,,0.000443000000,  -7.28000,
,,,0.000444000000,  -7.28000,
,,,0.000445000000,  -7.28000,
,,,0.000446000000,  -7.28000,
,,,0.000447000000,  -7.28000,
,,,0.000448000000,  -7.28000,
,,,0.000449000000,  -7.28000,
,,,0.000450000000,  -7.28000,
,,,0.000451000000,  -7.28000,
,,,0.000452000000,  -7.28000,
,,,0.000453000000,  -7.20000,
,,,0.000454000000,  -7.20000,
,,,0.000455000000,  -7.20000,
,,,0.000456000000,  -7.20000,
,,,0.000457000000,  -7.20000,
,,,0.000458000000,  -7.20000,
,,,0.000459000000,  -7.20000,
,,,0.000460000000,  -7.20000,
,,,0.000461000000,  -7.20000,
,,,0.000462000000,  -7.20000,
,,,0.000463000000,  -7.20000,
,,,0.000464000000,  -7.20000,
,,,0.000465000000,  -7.20000,
,,,0.000466000000,  -7.20000,
,,,0.000467000000,  -7.20000,
,,,0.000468000000,  -7.20000,
,,,0.000469000000,  -7.20000,
,,,0.000470000000,  -7.20000,
,,,0.000471000000,  -7.20000,
,,,0.000472000000,  -7.12000,
,,,0.000473000000,  -7.12000,
,,,0.000474000000,  -7.12000,
,,,0.000475000000,  -7.12000,
,,,0.000476000000,  -7.12000,
,,,0.000477000000,  -7.12000,
,,,0.000478000000,  -7.12000,
,,,0.000479000000,  -7.12000,
,,,0.000480000000,  -7.12000,
,,,0.000481000000,  -7.12000,
,,,0.000482000000,  -7.12000,
,,,0.000483000000,  -7.12000,
,,,0.000484000000,  -7.12000,
,,,0.000485000000,  -7.12000,
,,,0.000486000000,  -7.04000,
,,,0.000487000000,  -7.04000,
,,,0.000488000000,  -7.04000,
,,,0.000489000000,  -7.04000,
,,,0.000490000000,  -7.04000,
,,,0.000491000000,  -7.04000,
,,,0.000492000000,  -7.04000,
,,,0.000493000000,  -7.04000,
,,,0.000494000000,  -7.04000,
,,,0.000495000000,  -7.04000,
,,,0.000496000000,  -7.04000,
,,,0.000497000000,  -7.04000,
,,,0.000498000000,  -7.04000,
,,,0.000499000000,  -7.04000,
,,,0.000500000000,  -6.96000,
,,,0.000501000000,  -6.96000,
,,,0.000502000000,  -6.96000,
,,,0.000503000000,  -6.96000,
,,,0.000504000000,  -6.96000,
,,,0.000505000000,  -6.96000,
,,,0.000506000000,  -6.96000,
,,,0.000507000000,  -6.96000,
,,,0.000508000000,  -6.96000,
,,,0.000509000000,  -6.96000,
,,,0.000510000000,  -6.96000,
,,,0.000511000000,  -6.96000,
,,,0.000512000000,  -6.96000,
,,,0.000513000000,  -6.96000,
,,,0.000514000000,  -6.88000,
,,,0.000515000000,  -6.88000,
,,,0.000516000000,  -6.88000,
,,,0.000517000000,  -6.88000,
,,,0.000518000000,  -6.88000,
,,,0.000519000000,  -6.88000,
,,,0.000520000000,  -6.88000,
,,,0.000521000000,  -6.88000,
,,,0.000522000000,  -6.88000,
,,,0.000523000000,  -6.88000,
,,,0.000524000000,  -6.88000,
,,,0.000525000000,  -6.88000,
,,,0.000526000000,  -6.88000,
,,,0.000527000000,  -6.88000,
,,,0.000528000000,  -6.88000,
,,,0.000529000000,  -6.88000,
,,,0.000530000000,  -6.88000,
,,,0.000531000000,  -6.88000,
,,,0.000532000000,  -6.80000,
,,,0.000533000000,  -6.80000,
,,,0.000534000000,  -6.80000,
,,,0.000535000000,  -6.80000,
,,,0.000536000000,  -6.80000,
,,,0.000537000000,  -6.80000,
,,,0.000538000000,  -6.80000,
,,,0.000539000000,  -6.80000,
,,,0.000540000000,  -6.80000,
,,,0.000541000000,  -6.80000,
,,,0.000542000000,  -6.80000,
,,,0.000543000000,  -6.80000,
,,,0.000544000000,  -6.80000,
,,,0.000545000000,  -6.80000,
,,,0.000546000000,  -6.72000,
,,,0.000547000000,  -6.72000,
,,,0.000548000000,  -6.72000,
,,,0.000549000000,  -6.72000,
,,,0.000550000000,  -6.72000,
,,,0.000551000000,  -6.72000,
,,,0.000552000000,  -6.72000,
,,,0.000553000000,  -6.72000,
,,,0.000554000000,  -6.72000,
,,,0.000555000000,  -6.72000,
,,,0.000556000000,  -6.72000,
,,,0.000557000000,  -6.72000,
,,,0.000558000000,  -6.72000,
,,,0.000559000000,  -6.64000,
,,,0.000560000000,  -6.64000,
,,,0.000561000000,  -6.64000,
,,,0.000562000000,  -6.64000,
,,,0.000563000000,  -6.64000,
,,,0.000564000000,  -6.64000,
,,,0.000565000000,  -6.64000,
,,,0.000566000000,  -6.64000,
,,,0.000567000000,  -6.64000,
,,,0.000568000000,  -6.64000,
,,,0.000569000000,  -6.64000,
,,,0.000570000000,  -6.64000,
,,,0.000571000000,  -6.64000,
,,,0.000572000000,  -6.56000,
,,,0.000573000000,  -6.56000,
,,,0.000574000000,  -6.56000,
,,,0.000575000000,  -6.56000,
,,,0.000576000000,  -6.56000,
,,,0.000577000000,  -6.56000,
,,,0.000578000000,  -6.56000,
,,,0.000579000000,  -6.56000,
,,,0.000580000000,  -6.56000,
,,,0.000581000000,  -6.56000,
,,,0.000582000000,  -6.56000,
,,,0.000583000000,  -6.56000,
,,,0.000584000000,  -6.56000,
,,,0.000585000000,  -6.56000,
,,,0.000586000000,  -6.48000,
,,,0.000587000000,  -6.48000,
,,,0.000588000000,  -6.48000,
,,,0.000589000000,  -6.48000,
,,,0.000590000000,  -6.48000,
,,,0.000591000000,  -6.48000,
,,,0.000592000000,  -6.48000,
,,,0.000593000000,  -6.48000,
,,,0.000594000000,  -6.48000,
,,,0.000595000000,  -6.48000,
,,,0.000596000000,  -6.48000,
,,,0.000597000000,  -6.48000,
,,,0.000598000000,  -6.40000,
,,,0.000599000000,  -6.40000,
,,,0.000600000000,  -6.40000,
,,,0.000601000000,  -6.40000,
,,,0.000602000000,  -6.40000,
,,,0.000603000000,  -6.40000,
,,,0.000604000000,  -6.40000,
,,,0.000605000000,  -6.40000,
,,,0.000606000000,  -6.40000,
,,,0.000607000000,  -6.40000,
,,,0.000608000000,  -6.40000,
,,,0.000609000000,  -6.40000,
,,,0.000610000000,  -6.40000,
,,,0.000611000000,  -6.32000,
,,,0.000612000000,  -6.32000,
,,,0.000613000000,  -6.32000,
,,,0.000614000000,  -6.32000,
,,,0.000615000000,  -6.32000,
,,,0.000616000000,  -6.32000,
,,,0.000617000000,  -6.32000,
,,,0.000618000000,  -6.32000,
,,,0.000619000000,  -6.32000,
,,,0.000620000000,  -6.32000,
,,,0.000621000000,  -6.32000,
,,,0.000622000000,  -6.32000,
,,,0.000623000000,  -6.24000,
,,,0.000624000000,  -6.24000,
,,,0.000625000000,  -6.24000,
,,,0.000626000000,  -6.24000,
,,,0.000627000000,  -6.24000,
,,,0.000628000000,  -6.24000,
,,,0.000629000000,  -6.24000,
,,,0.000630000000,  -6.24000,
,,,0.000631000000,  -6.24000,
,,,0.000632000000,  -6.24000,
,,,0.000633000000,  -6.24000,
,,,0.000634000000,  -6.24000,
,,,0.000635000000,  -6.24000,
,,,0.000636000000,  -6.24000,
,,,0.000637000000,  -6.24000,
,,,0.000638000000,  -6.24000,
,,,0.000639000000,  -6.24000,
,,,0.000640000000,  -6.16000,
,,,0.000641000000,  -6.16000,
,,,0.000642000000,  -6.16000,
,,,0.000643000000,  -6.16000,
,,,0.000644000000,  -6.16000,
,,,0.000645000000,  -6.16000,
,,,0.000646000000,  -6.16000,
,,,0.000647000000,  -6.16000,
,,,0.000648000000,  -6.16000,
,,,0.000649000000,  -6.16000,
,,,0.000650000000,  -6.16000,
,,,0.000651000000,  -6.16000,
,,,0.000652000000,  -6.16000,
,,,0.000653000000,  -6.08000,
,,,0.000654000000,  -6.08000,
,,,0.000655000000,  -6.08000,
,,,0.000656000000,  -6.08000,
,,,0.000657000000,  -6.08000,
,,,0.000658000000,  -6.08000,
,,,0.000659000000,  -6.08000,
,,,0.000660000000,  -6.08000,
,,,0.000661000000,  -6.08000,
,,,0.000662000000,  -6.08000,
,,,0.000663000000,  -6.08000,
,,,0.000664000000,  -6.08000,
,,,0.000665000000,  -6.08000,
,,,0.000666000000,  -6.00000,
,,,0.000667000000,  -6.00000,
,,,0.000668000000,  -6.00000,
,,,0.000669000000,  -6.00000,
,,,0.000670000000,  -6.00000,
,,,0.000671000000,  -6.00000,
,,,0.000672000000,  -6.00000,
,,,0.000673000000,  -6.00000,
,,,0.000674000000,  -6.00000,
,,,0.000675000000,  -6.00000,
,,,0.000676000000,  -6.00000,
,,,0.000677000000,  -6.00000,
,,,0.000678000000,  -5.92000,
,,,0.000679000000,  -5.92000,
,,,0.000680000000,  -5.92000,
,,,0.000681000000,  -5.92000,
,,,0.000682000000,  -5.92000,
,,,0.000683000000,  -5.92000,
,,,0.000684000000,  -5.92000,
,,,0.000685000000,  -5.92000,
,,,0.000686000000,  -5.92000,
,,,0.000687000000,  -5.92000,
,,,0.000688000000,  -5.92000,
,,,0.000689000000,  -5.92000,
,,,0.000690000000,  -5.92000,
,,,0.000691000000,  -5.92000,
,,,0.000692000000,  -5.92000,
,,,0.000693000000,  -5.92000,
,,,0.000694000000,  -5.92000,
,,,0.000695000000,  -5.84000,
,,,0.000696000000,  -5.84000,
,,,0.000697000000,  -5.84000,
,,,0.000698000000,  -5.84000,
,,,0.000699000000,  -5.84000,
,,,0.000700000000,  -5.84000,
,,,0.000701000000,  -5.84000,
,,,0.000702000000,  -5.84000,
,,,0.000703000000,  -5.84000,
,,,0.000704000000,  -5.84000,
,,,0.000705000000,  -5.84000,
,,,0.000706000000,  -5.84000,
,,,0.000707000000,  -5.76000,
,,,0.000708000000,  -5.76000,
,,,0.000709000000,  -5.76000,
,,,0.000710000000,  -5.76000,
,,,0.000711000000,  -5.76000,
,,,0.000712000000,  -5.76000,
,,,0.000713000000,  -5.76000,
,,,0.000714000000,  -5.76000,
,,,0.000715000000,  -5.76000,
,,,0.000716000000,  -5.76000,
,,,0.000717000000,  -5.76000,
,,,0.000718000000,  -5.76000,
,,,0.000719000000,  -5.76000,
,,,0.000720000000,  -5.68000,
,,,0.000721000000,  -5.68000,
,,,0.000722000000,  -5.68000,
,,,0.000723000000,  -5.68000,
,,,0.000724000000,  -5.68000,
,,,0.000725000000,  -5.68000,
,,,0.000726000000,  -5.68000,
,,,0.000727000000,  -5.68000,
,,,0.000728000000,  -5.68000,
,,,0.000729000000,  -5.68000,
,,,0.000730000000,  -5.68000,
,,,0.000731000000,  -5.68000,
,,,0.000732000000,  -5.60000,
,,,0.000733000000,  -5.60000,
,,,0.000734000000,  -5.60000,
,,,0.000735000000,  -5.60000,
,,,0.000736000000,  -5.60000,
,,,0.000737000000,  -5.60000,
,,,0.000738000000,  -5.60000,
,,,0.000739000000,  -5.60000,
,,,0.000740000000,  -5.60000,
,,,0.000741000000,  -5.60000,
,,,0.000742000000,  -5.60000,
,,,0.000743000000,  -5.60000,
,,,0.000744000000,  -5.52000,
,,,0.000745000000,  -5.52000,
,,,0.000746000000,  -5.52000,
,,,0.000747000000,  -5.52000,
,,,0.000748000000,  -5.52000,
,,,0.000749000000,  -5.52000,
,,,0.000750000000,  -5.52000,
,,,0.000751000000,  -5.52000,
,,,0.000752000000,  -5.52000,
,,,0.000753000000,  -5.52000,
,,,0.000754000000,  -5.52000,
,,,0.000755000000,  -5.52000,
,,,0.000756000000,  -5.44000,
,,,0.000757000000,  -5.44000,
,,,0.000758000000,  -5.44000,
,,,0.000759000000,  -5.44000,
,,,0.000760000000,  -5.44000,
,,,0.000761000000,  -5.44000,
,,,0.000762000000,  -5.44000,
,,,0.000763000000,  -5.44000,
,,,0.000764000000,  -5.44000,
,,,0.000765000000,  -5.44000,
,,,0.000766000000,  -5.44000,
,,,0.000767000000,  -5.44000,
,,,0.000768000000,  -5.44000,
,,,0.000769000000,  -5.44000,
,,,0.000770000000,  -5.44000,
,,,0.000771000000,  -5.44000,
,,,0.000772000000,  -5.36000,
,,,0.000773000000,  -5.36000,
,,,0.000774000000,  -5.36000,
,,,0.000775000000,  -5.36000,
,,,0.000776000000,  -5.36000,
,,,0.000777000000,  -5.36000,
,,,0.000778000000,  -5.36000,
,,,0.000779000000,  -5.36000,
,,,0.000780000000,  -5.36000,
,,,0.000781000000,  -5.36000,
,,,0.000782000000,  -5.36000,
,,,0.000783000000,  -5.36000,
,,,0.000784000000,  -5.36000,
,,,0.000785000000,  -5.28000,
,,,0.000786000000,  -5.28000,
,,,0.000787000000,  -5.28000,
,,,0.000788000000,  -5.28000,
,,,0.000789000000,  -5.28000,
,,,0.000790000000,  -5.28000,
,,,0.000791000000,  -5.28000,
,,,0.000792000000,  -5.28000,
,,,0.000793000000,  -5.28000,
,,,0.000794000000,  -5.28000,
,,,0.000795000000,  -5.28000,
,,,0.000796000000,  -5.20000,
,,,0.000797000000,  -5.20000,
,,,0.000798000000,  -5.20000,
,,,0.000799000000,  -5.20000,
,,,0.000800000000,  -5.20000,
,,,0.000801000000,  -5.20000,
,,,0.000802000000,  -5.20000,
,,,0.000803000000,  -5.20000,
,,,0.000804000000,  -5.20000,
,,,0.000805000000,  -5.20000,
,,,0.000806000000,  -5.20000,
,,,0.000807000000,  -5.20000,
,,,0.000808000000,  -5.12000,
,,,0.000809000000,  -5.12000,
,,,0.000810000000,  -5.12000,
,,,0.000811000000,  -5.12000,
,,,0.000812000000,  -5.12000,
,,,0.000813000000,  -5.12000,
,,,0.000814000000,  -5.12000,
,,,0.000815000000,  -5.12000,
,,,0.000816000000,  -5.12000,
,,,0.000817000000,  -5.12000,
,,,0.000818000000,  -5.12000,
,,,0.000819000000,  -5.12000,
,,,0.000820000000,  -5.04000,
,,,0.000821000000,  -5.04000,
,,,0.000822000000,  -5.04000,
,,,0.000823000000,  -5.04000,
,,,0.000824000000,  -5.04000,
,,,0.000825000000,  -5.04000,
,,,0.000826000000,  -5.04000,
,,,0.000827000000,  -5.04000,
,,,0.000828000000,  -5.04000,
,,,0.000829000000,  -5.04000,
,,,0.000830000000,  -5.04000,
,,,0.000831000000,  -5.04000,
,,,0.000832000000,  -4.96000,
,,,0.000833000000,  -4.96000,
,,,0.000834000000,  -4.96000,
,,,0.000835000000,  -4.96000,
,,,0.000836000000,  -4.96000,
,,,0.000837000000,  -4.96000,
,,,0.000838000000,  -4.96000,
,,,0.000839000000,  -4.96000,
,,,0.000840000000,  -4.96000,
,,,0.000841000000,  -4.96000,
,,,0.000842000000,  -4.96000,
,,,0.000843000000,  -4.96000,
,,,0.000844000000,  -4.88000,
,,,0.000845000000,  -4.88000,
,,,0.000846000000,  -4.88000,
,,,0.000847000000,  -4.88000,
,,,0.000848000000,  -4.88000,
,,,0.000849000000,  -4.88000,
,,,0.000850000000,  -4.88000,
,,,0.000851000000,  -4.88000,
,,,0.000852000000,  -4.88000,
,,,0.000853000000,  -4.88000,
,,,0.000854000000,  -4.80000,
,,,0.000855000000,  -4.80000,
,,,0.000856000000,  -4.80000,
,,,0.000857000000,  -4.80000,
,,,0.000858000000,  -4.80000,
,,,0.000859000000,  -4.80000,
,,,0.000860000000,  -4.80000,
,,,0.000861000000,  -4.80000,
,,,0.000862000000,  -4.80000,
,,,0.000863000000,  -4.80000,
