3 - Velocidade da Luz/fase_liquido_1/ALL0005/F0005CH2.CSV

Record Length,2.500000e+03,,  -0.000013300000, -62.65600,
Sample Interval,1.000000e-08,,  -0.000013290000, -61.23200,
Trigger Point,1.330000000000e+03,,  -0.000013280000, -61.23200,
,,,  -0.000013270000, -62.65600,
,,,  -0.000013260000, -61.23200,
,,,  -0.000013250000, -64.08000,
Source,CH2,,  -0.000013240000, -61.23200,
Vertical Units,V,,  -0.000013230000, -61.23200,
Vertical Scale,3.560000e+01,,  -0.000013220000, -61.23200,
Vertical Offset,0.000000e+00,,  -0.000013210000, -62.65600,
Horizontal Units,s,,  -0.000013200000, -62.65600,
Horizontal Scale,2.500000e-06,,  -0.000013190000, -59.80800,
Pt Fmt,Y,,  -0.000013180000, -62.65600,
Yzero,0.000000e+00,,  -0.000013170000, -62.65600,
Probe Atten,1.000000e+01,,  -0.000013160000, -59.80800,
Model Number,TDS1012B,,  -0.000013150000, -61.23200,
Serial Number,C053081,,  -0.000013140000, -62.65600,
Firmware Version,FV:v22.01,,  -0.000013130000, -61.23200,
,,,-00.000013120000, -62.65600,
,,,-00.000013110000, -64.08000,
,,,-00.000013100000, -61.23200,
,,,-00.000013090000, -62.65600,
,,,-00.000013080000, -61.23200,
,,,-00.000013070000, -61.23200,
,,,-00.000013060000, -62.65600,
,,,-00.000013050000, -61.23200,
,,,-00.000013040000, -59.80800,
,,,-00.000013030000, -59.80800,
,,,-00.000013020000, -61.23200,
,,,-00.000013010000, -61.23200,
,,,-00.000013000000, -62.65600,
,,,-00.000012990000, -61.23200,
,,,-00.000012980000, -61.23200,
,,,-00.000012970000, -59.80800,
,,,-00.000012960000, -59.80800,
,,,-00.000012950000, -62.65600,
,,,-00.000012940000, -61.23200,
,,,-00.000012930000, -62.65600,
,,,-00.000012920000, -61.23200,
,,,-00.000012910000, -59.80800,
,,,-00.000012900000, -59.80800,
,,,-00.000012890000, -61.23200,
,,,-00.000012880000, -62.65600,
,,,-00.000012870000, -62.65600,
,,,-00.000012860000, -61.23200,
,,,-00.000012850000, -59.80800,
,,,-00.000012840000, -58.38400,
,,,-00.000012830000, -59.80800,
,,,-00.000012820000, -59.80800,
,,,-00.000012810000, -58.38400,
,,,-00.000012800000, -61.23200,
,,,-00.000012790000, -59.80800,
,,,-00.000012780000, -62.65600,
,,,-00.000012770000, -62.65600,
,,,-00.000012760000, -58.38400,
,,,-00.000012750000, -61.23200,
,,,-00.000012740000, -58.38400,
,,,-00.000012730000, -59.80800,
,,,-00.000012720000, -61.23200,
,,,-00.000012710000, -58.38400,
,,,-00.000012700000, -61.23200,
,,,-00.000012690000, -61.23200,
,,,-00.000012680000, -58.38400,
,,,-00.000012670000, -58.38400,
,,,-00.000012660000, -59.80800,
,,,-00.000012650000, -61.23200,
,,,-00.000012640000, -58.38400,
,,,-00.000012630000, -58.38400,
,,,-00.000012620000, -58.38400,
,,,-00.000012610000, -58.38400,
,,,-00.000012600000, -58.38400,
,,,-00.000012590000, -58.38400,
,,,-00.000012580000, -55.53600,
,,,-00.000012570000, -56.96000,
,,,-00.000012560000, -59.80800,
,,,-00.000012550000, -58.38400,
,,,-00.000012540000, -56.96000,
,,,-00.000012530000, -55.53600,
,,,-00.000012520000, -56.96000,
,,,-00.000012510000, -58.38400,
,,,-00.000012500000, -55.53600,
,,,-00.000012490000, -54.11200,
,,,-00.000012480000, -55.53600,
,,,-00.000012470000, -56.96000,
,,,-00.000012460000, -55.53600,
,,,-00.000012450000, -58.38400,
,,,-00.000012440000, -55.53600,
,,,-00.000012430000, -54.11200,
,,,-00.000012420000, -56.96000,
,,,-00.000012410000, -55.53600,
,,,-00.000012400000, -55.53600,
,,,-00.000012390000, -54.11200,
,,,-00.000012380000, -54.11200,
,,,-00.000012370000, -54.11200,
,,,-00.000012360000, -54.11200,
,,,-00.000012350000, -51.26400,
,,,-00.000012340000, -52.68800,
,,,-00.000012330000, -54.11200,
,,,-00.000012320000, -55.53600,
,,,-00.000012310000, -52.68800,
,,,-00.000012300000, -51.26400,
,,,-00.000012290000, -51.26400,
,,,-00.000012280000, -54.11200,
,,,-00.000012270000, -54.11200,
,,,-00.000012260000, -52.68800,
,,,-00.000012250000, -51.26400,
,,,-00.000012240000, -51.26400,
,,,-00.000012230000, -49.84000,
,,,-00.000012220000, -51.26400,
,,,-00.000012210000, -51.26400,
,,,-00.000012200000, -49.84000,
,,,-00.000012190000, -49.84000,
,,,-00.000012180000, -51.26400,
,,,-00.000012170000, -49.84000,
,,,-00.000012160000, -49.84000,
,,,-00.000012150000, -51.26400,
,,,-00.000012140000, -48.41600,
,,,-00.000012130000, -48.41600,
,,,-00.000012120000, -49.84000,
,,,-00.000012110000, -46.99200,
,,,-00.000012100000, -49.84000,
,,,-00.000012090000, -46.99200,
,,,-00.000012080000, -48.41600,
,,,-00.000012070000, -48.41600,
,,,-00.000012060000, -48.41600,
,,,-00.000012050000, -46.99200,
,,,-00.000012040000, -46.99200,
,,,-00.000012030000, -45.56800,
,,,-00.000012020000, -46.99200,
,,,-00.000012010000, -45.56800,
,,,-00.000012000000, -45.56800,
,,,-00.000011990000, -46.99200,
,,,-00.000011980000, -44.14400,
,,,-00.000011970000, -44.14400,
,,,-00.000011960000, -44.14400,
,,,-00.000011950000, -45.56800,
,,,-00.000011940000, -46.99200,
,,,-00.000011930000, -44.14400,
,,,-00.000011920000, -44.14400,
,,,-00.000011910000, -44.14400,
,,,-00.000011900000, -45.56800,
,,,-00.000011890000, -44.14400,
,,,-00.000011880000, -42.72000,
,,,-00.000011870000, -41.29600,
,,,-00.000011860000, -41.29600,
,,,-00.000011850000, -42.72000,
,,,-00.000011840000, -44.14400,
,,,-00.000011830000, -44.14400,
,,,-00.000011820000, -42.72000,
,,,-00.000011810000, -41.29600,
,,,-00.000011800000, -41.29600,
,,,-00.000011790000, -41.29600,
,,,-00.000011780000, -38.44800,
,,,-00.000011770000, -39.87200,
,,,-00.000011760000, -39.87200,
,,,-00.000011750000, -38.44800,
,,,-00.000011740000, -38.44800,
,,,-00.000011730000, -38.44800,
,,,-00.000011720000, -38.44800,
,,,-00.000011710000, -38.44800,
,,,-00.000011700000, -37.02400,
,,,-00.000011690000, -38.44800,
,,,-00.000011680000, -38.44800,
,,,-00.000011670000, -38.44800,
,,,-00.000011660000, -35.60000,
,,,-00.000011650000, -34.17600,
,,,-00.000011640000, -35.60000,
,,,-00.000011630000, -35.60000,
,,,-00.000011620000, -35.60000,
,,,-00.000011610000, -35.60000,
,,,-00.000011600000, -34.17600,
,,,-00.000011590000, -32.75200,
,,,-00.000011580000, -35.60000,
,,,-00.000011570000, -34.17600,
,,,-00.000011560000, -34.17600,
,,,-00.000011550000, -31.32800,
,,,-00.000011540000, -31.32800,
,,,-00.000011530000, -31.32800,
,,,-00.000011520000, -34.17600,
,,,-00.000011510000, -32.75200,
,,,-00.000011500000, -29.90400,
,,,-00.000011490000, -29.90400,
,,,-00.000011480000, -31.32800,
,,,-00.000011470000, -29.90400,
,,,-00.000011460000, -31.32800,
,,,-00.000011450000, -28.48000,
,,,-00.000011440000, -29.90400,
,,,-00.000011430000, -28.48000,
,,,-00.000011420000, -29.90400,
,,,-00.000011410000, -29.90400,
,,,-00.000011400000, -27.05600,
,,,-00.000011390000, -28.48000,
,,,-00.000011380000, -28.48000,
,,,-00.000011370000, -27.05600,
,,,-00.000011360000, -25.63200,
,,,-00.000011350000, -27.05600,
,,,-00.000011340000, -25.63200,
,,,-00.000011330000, -22.78400,
,,,-00.000011320000, -27.05600,
,,,-00.000011310000, -22.78400,
,,,-00.000011300000, -24.20800,
,,,-00.000011290000, -24.20800,
,,,-00.000011280000, -24.20800,
,,,-00.000011270000, -24.20800,
,,,-00.000011260000, -22.78400,
,,,-00.000011250000, -21.36000,
,,,-00.000011240000, -21.36000,
,,,-00.000011230000, -21.36000,
,,,-00.000011220000, -19.93600,
,,,-00.000011210000, -21.36000,
,,,-00.000011200000, -21.36000,
,,,-00.000011190000, -22.78400,
,,,-00.000011180000, -21.36000,
,,,-00.000011170000, -19.93600,
,,,-00.000011160000, -19.93600,
,,,-00.000011150000, -19.93600,
,,,-00.000011140000, -18.51200,
,,,-00.000011130000, -21.36000,
,,,-00.000011120000, -18.51200,
,,,-00.000011110000, -17.08800,
,,,-00.000011100000, -15.66400,
,,,-00.000011090000, -17.08800,
,,,-00.000011080000, -17.08800,
,,,-00.000011070000, -17.08800,
,,,-00.000011060000, -14.24000,
,,,-00.000011050000, -14.24000,
,,,-00.000011040000, -15.66400,
,,,-00.000011030000, -17.08800,
,,,-00.000011020000, -15.66400,
,,,-00.000011010000, -14.24000,
,,,-00.000011000000, -11.39200,
,,,-00.000010990000, -12.81600,
,,,-00.000010980000, -11.39200,
,,,-00.000010970000, -11.39200,
,,,-00.000010960000, -12.81600,
,,,-00.000010950000, -14.24000,
,,,-00.000010940000, -11.39200,
,,,-00.000010930000,  -9.96800,
,,,-00.000010920000,  -9.96800,
,,,-00.000010910000, -12.81600,
,,,-00.000010900000, -12.81600,
,,,-00.000010890000,  -9.96800,
,,,-00.000010880000,  -8.54400,
,,,-00.000010870000,  -8.54400,
,,,-00.000010860000,  -7.12000,
,,,-00.000010850000,  -8.54400,
,,,-00.000010840000,  -8.54400,
,,,-00.000010830000,  -5.69600,
,,,-00.000010820000,  -7.12000,
,,,-00.000010810000,  -7.12000,
,,,-00.000010800000,  -4.27200,
,,,-00.000010790000,  -4.27200,
,,,-00.000010780000,  -4.27200,
,,,-00.000010770000,  -5.69600,
,,,-00.000010760000,  -4.27200,
,,,-00.000010750000,  -4.27200,
,,,-00.000010740000,  -2.84800,
,,,-00.000010730000,  -2.84800,
,,,-00.000010720000,  -2.84800,
,,,-00.000010710000,  -2.84800,
,,,-00.000010700000,  -2.84800,
,,,-00.000010690000,  -1.42400,
,,,-00.000010680000,  -1.42400,
,,,-00.000010670000,  -2.84800,
,,,-00.000010660000,  -1.42400,
,,,-00.000010650000,   0.00000,
,,,-00.000010640000,   0.00000,
,,,-00.000010630000,   1.42400,
,,,-00.000010620000,   2.84800,
,,,-00.000010610000,   1.42400,
,,,-00.000010600000,   1.42400,
,,,-00.000010590000,   1.42400,
,,,-00.000010580000,   1.42400,
,,,-00.000010570000,   2.84800,
,,,-00.000010560000,   4.27200,
,,,-00.000010550000,   5.69600,
,,,-00.000010540000,   4.27200,
,,,-00.000010530000,   4.27200,
,,,-00.000010520000,   4.27200,
,,,-00.000010510000,   4.27200,
,,,-00.000010500000,   7.12000,
,,,-00.000010490000,   7.12000,
,,,-00.000010480000,   4.27200,
,,,-00.000010470000,   5.69600,
,,,-00.000010460000,   5.69600,
,,,-00.000010450000,   8.54400,
,,,-00.000010440000,   8.54400,
,,,-00.000010430000,   8.54400,
,,,-00.000010420000,   7.12000,
,,,-00.000010410000,   7.12000,
,,,-00.000010400000,   9.96800,
,,,-00.000010390000,   9.96800,
,,,-00.000010380000,   9.96800,
,,,-00.000010370000,  11.39200,
,,,-00.000010360000,   9.96800,
,,,-00.000010350000,  11.39200,
,,,-00.000010340000,   9.96800,
,,,-00.000010330000,  15.66400,
,,,-00.000010320000,  14.24000,
,,,-00.000010310000,  15.66400,
,,,-00.000010300000,  11.39200,
,,,-00.000010290000,  12.81600,
,,,-00.000010280000,  14.24000,
,,,-00.000010270000,  14.24000,
,,,-00.000010260000,  14.24000,
,,,-00.000010250000,  15.66400,
,,,-00.000010240000,  14.24000,
,,,-00.000010230000,  17.08800,
,,,-00.000010220000,  17.08800,
,,,-00.000010210000,  14.24000,
,,,-00.000010200000,  15.66400,
,,,-00.000010190000,  18.51200,
,,,-00.000010180000,  18.51200,
,,,-00.000010170000,  19.93600,
,,,-00.000010160000,  18.51200,
,,,-00.000010150000,  19.93600,
,,,-00.000010140000,  19.93600,
,,,-00.000010130000,  21.36000,
,,,-00.000010120000,  21.36000,
,,,-00.000010110000,  19.93600,
,,,-00.000010100000,  21.36000,
,,,-00.000010090000,  22.78400,
,,,-00.000010080000,  19.93600,
,,,-00.000010070000,  22.78400,
,,,-00.000010060000,  21.36000,
,,,-00.000010050000,  24.20800,
,,,-00.000010040000,  22.78400,
,,,-00.000010030000,  22.78400,
,,,-00.000010020000,  22.78400,
,,,-00.000010010000,  24.20800,
,,,-00.000010000000,  25.63200,
,,,-00.000009990000,  27.05600,
,,,-00.000009980000,  25.63200,
,,,-00.000009970000,  25.63200,
,,,-00.000009960000,  25.63200,
,,,-00.000009950000,  25.63200,
,,,-00.000009940000,  27.05600,
,,,-00.000009930000,  25.63200,
,,,-00.000009920000,  28.48000,
,,,-00.000009910000,  29.90400,
,,,-00.000009900000,  28.48000,
,,,-00.000009890000,  27.05600,
,,,-00.000009880000,  29.90400,
,,,-00.000009870000,  29.90400,
,,,-00.000009860000,  31.32800,
,,,-00.000009850000,  29.90400,
,,,-00.000009840000,  31.32800,
,,,-00.000009830000,  31.32800,
,,,-00.000009820000,  31.32800,
,,,-00.000009810000,  29.90400,
,,,-00.000009800000,  32.75200,
,,,-00.000009790000,  32.75200,
,,,-00.000009780000,  32.75200,
,,,-00.000009770000,  34.17600,
,,,-00.000009760000,  32.75200,
,,,-00.000009750000,  32.75200,
,,,-00.000009740000,  34.17600,
,,,-00.000009730000,  34.17600,
,,,-00.000009720000,  34.17600,
,,,-00.000009710000,  31.32800,
,,,-00.000009700000,  32.75200,
,,,-00.000009690000,  34.17600,
,,,-00.000009680000,  35.60000,
,,,-00.000009670000,  35.60000,
,,,-00.000009660000,  34.17600,
,,,-00.000009650000,  34.17600,
,,,-00.000009640000,  38.44800,
,,,-00.000009630000,  39.87200,
,,,-00.000009620000,  37.02400,
,,,-00.000009610000,  37.02400,
,,,-00.000009600000,  37.02400,
,,,-00.000009590000,  37.02400,
,,,-00.000009580000,  39.87200,
,,,-00.000009570000,  39.87200,
,,,-00.000009560000,  41.29600,
,,,-00.000009550000,  39.87200,
,,,-00.000009540000,  38.44800,
,,,-00.000009530000,  41.29600,
,,,-00.000009520000,  41.29600,
,,,-00.000009510000,  42.72000,
,,,-00.000009500000,  42.72000,
,,,-00.000009490000,  39.87200,
,,,-00.000009480000,  41.29600,
,,,-00.000009470000,  41.29600,
,,,-00.000009460000,  42.72000,
,,,-00.000009450000,  41.29600,
,,,-00.000009440000,  42.72000,
,,,-00.000009430000,  44.14400,
,,,-00.000009420000,  45.56800,
,,,-00.000009410000,  45.56800,
,,,-00.000009400000,  45.56800,
,,,-00.000009390000,  44.14400,
,,,-00.000009380000,  45.56800,
,,,-00.000009370000,  45.56800,
,,,-00.000009360000,  44.14400,
,,,-00.000009350000,  45.56800,
,,,-00.000009340000,  48.41600,
,,,-00.000009330000,  46.99200,
,,,-00.000009320000,  46.99200,
,,,-00.000009310000,  46.99200,
,,,-00.000009300000,  48.41600,
,,,-00.000009290000,  48.41600,
,,,-00.000009280000,  46.99200,
,,,-00.000009270000,  48.41600,
,,,-00.000009260000,  46.99200,
,,,-00.000009250000,  49.84000,
,,,-00.000009240000,  48.41600,
,,,-00.000009230000,  48.41600,
,,,-00.000009220000,  46.99200,
,,,-00.000009210000,  49.84000,
,,,-00.000009200000,  48.41600,
,,,-00.000009190000,  49.84000,
,,,-00.000009180000,  49.84000,
,,,-00.000009170000,  49.84000,
,,,-00.000009160000,  49.84000,
,,,-00.000009150000,  49.84000,
,,,-00.000009140000,  51.26400,
,,,-00.000009130000,  52.68800,
,,,-00.000009120000,  51.26400,
,,,-00.000009110000,  52.68800,
,,,-00.000009100000,  55.53600,
,,,-00.000009090000,  52.68800,
,,,-00.000009080000,  54.11200,
,,,-00.000009070000,  55.53600,
,,,-00.000009060000,  52.68800,
,,,-00.000009050000,  52.68800,
,,,-00.000009040000,  54.11200,
,,,-00.000009030000,  51.26400,
,,,-00.000009020000,  54.11200,
,,,-00.000009010000,  54.11200,
,,,-00.000009000000,  54.11200,
,,,-00.000008990000,  54.11200,
,,,-00.000008980000,  54.11200,
,,,-00.000008970000,  54.11200,
,,,-00.000008960000,  55.53600,
,,,-00.000008950000,  55.53600,
,,,-00.000008940000,  54.11200,
,,,-00.000008930000,  55.53600,
,,,-00.000008920000,  56.96000,
,,,-00.000008910000,  54.11200,
,,,-00.000008900000,  56.96000,
,,,-00.000008890000,  55.53600,
,,,-00.000008880000,  56.96000,
,,,-00.000008870000,  58.38400,
,,,-00.000008860000,  55.53600,
,,,-00.000008850000,  59.80800,
,,,-00.000008840000,  56.96000,
,,,-00.000008830000,  56.96000,
,,,-00.000008820000,  55.53600,
,,,-00.000008810000,  59.80800,
,,,-00.000008800000,  58.38400,
,,,-00.000008790000,  56.96000,
,,,-00.000008780000,  58.38400,
,,,-00.000008770000,  61.23200,
,,,-00.000008760000,  59.80800,
,,,-00.000008750000,  58.38400,
,,,-00.000008740000,  58.38400,
,,,-00.000008730000,  58.38400,
,,,-00.000008720000,  58.38400,
,,,-00.000008710000,  59.80800,
,,,-00.000008700000,  58.38400,
,,,-00.000008690000,  58.38400,
,,,-00.000008680000,  58.38400,
,,,-00.000008670000,  58.38400,
,,,-00.000008660000,  59.80800,
,,,-00.000008650000,  59.80800,
,,,-00.000008640000,  59.80800,
,,,-00.000008630000,  58.38400,
,,,-00.000008620000,  59.80800,
,,,-00.000008610000,  59.80800,
,,,-00.000008600000,  59.80800,
,,,-00.000008590000,  59.80800,
,,,-00.000008580000,  62.65600,
,,,-00.000008570000,  62.65600,
,,,-00.000008560000,  61.23200,
,,,-00.000008550000,  62.65600,
,,,-00.000008540000,  61.23200,
,,,-00.000008530000,  61.23200,
,,,-00.000008520000,  62.65600,
,,,-00.000008510000,  64.08000,
,,,-00.000008500000,  61.23200,
,,,-00.000008490000,  61.23200,
,,,-00.000008480000,  61.23200,
,,,-00.000008470000,  61.23200,
,,,-00.000008460000,  61.23200,
,,,-00.000008450000,  62.65600,
,,,-00.000008440000,  62.65600,
,,,-00.000008430000,  61.23200,
,,,-00.000008420000,  64.08000,
,,,-00.000008410000,  61.23200,
,,,-00.000008400000,  61.23200,
,,,-00.000008390000,  62.65600,
,,,-00.000008380000,  64.08000,
,,,-00.000008370000,  64.08000,
,,,-00.000008360000,  61.23200,
,,,-00.000008350000,  62.65600,
,,,-00.000008340000,  62.65600,
,,,-00.000008330000,  62.65600,
,,,-00.000008320000,  64.08000,
,,,-00.000008310000,  64.08000,
,,,-00.000008300000,  61.23200,
,,,-00.000008290000,  62.65600,
,,,-00.000008280000,  64.08000,
,,,-00.000008270000,  62.65600,
,,,-00.000008260000,  62.65600,
,,,-00.000008250000,  62.65600,
,,,-00.000008240000,  62.65600,
,,,-00.000008230000,  61.23200,
,,,-00.000008220000,  62.65600,
,,,-00.000008210000,  64.08000,
,,,-00.000008200000,  64.08000,
,,,-00.000008190000,  62.65600,
,,,-00.000008180000,  61.23200,
,,,-00.000008170000,  62.65600,
,,,-00.000008160000,  62.65600,
,,,-00.000008150000,  64.08000,
,,,-00.000008140000,  62.65600,
,,,-00.000008130000,  64.08000,
,,,-00.000008120000,  65.50400,
,,,-00.000008110000,  66.92800,
,,,-00.000008100000,  62.65600,
,,,-00.000008090000,  62.65600,
,,,-00.000008080000,  65.50400,
,,,-00.000008070000,  62.65600,
,,,-00.000008060000,  64.08000,
,,,-00.000008050000,  62.65600,
,,,-00.000008040000,  64.08000,
,,,-00.000008030000,  64.08000,
,,,-00.000008020000,  64.08000,
,,,-00.000008010000,  62.65600,
,,,-00.000008000000,  62.65600,
,,,-00.000007990000,  65.50400,
,,,-00.000007980000,  65.50400,
,,,-00.000007970000,  62.65600,
,,,-00.000007960000,  62.65600,
,,,-00.000007950000,  61.23200,
,,,-00.000007940000,  62.65600,
,,,-00.000007930000,  62.65600,
,,,-00.000007920000,  62.65600,
,,,-00.000007910000,  64.08000,
,,,-00.000007900000,  61.23200,
,,,-00.000007890000,  64.08000,
,,,-00.000007880000,  62.65600,
,,,-00.000007870000,  61.23200,
,,,-00.000007860000,  61.23200,
,,,-00.000007850000,  61.23200,
,,,-00.000007840000,  62.65600,
,,,-00.000007830000,  61.23200,
,,,-00.000007820000,  65.50400,
,,,-00.000007810000,  64.08000,
,,,-00.000007800000,  61.23200,
,,,-00.000007790000,  62.65600,
,,,-00.000007780000,  64.08000,
,,,-00.000007770000,  62.65600,
,,,-00.000007760000,  61.23200,
,,,-00.000007750000,  62.65600,
,,,-00.000007740000,  61.23200,
,,,-00.000007730000,  62.65600,
,,,-00.000007720000,  61.23200,
,,,-00.000007710000,  59.80800,
,,,-00.000007700000,  61.23200,
,,,-00.000007690000,  61.23200,
,,,-00.000007680000,  59.80800,
,,,-00.000007670000,  61.23200,
,,,-00.000007660000,  61.23200,
,,,-00.000007650000,  62.65600,
,,,-00.000007640000,  59.80800,
,,,-00.000007630000,  58.38400,
,,,-00.000007620000,  61.23200,
,,,-00.000007610000,  59.80800,
,,,-00.000007600000,  58.38400,
,,,-00.000007590000,  61.23200,
,,,-00.000007580000,  61.23200,
,,,-00.000007570000,  59.80800,
,,,-00.000007560000,  58.38400,
,,,-00.000007550000,  58.38400,
,,,-00.000007540000,  58.38400,
,,,-00.000007530000,  61.23200,
,,,-00.000007520000,  61.23200,
,,,-00.000007510000,  58.38400,
,,,-00.000007500000,  58.38400,
,,,-00.000007490000,  58.38400,
,,,-00.000007480000,  58.38400,
,,,-00.000007470000,  58.38400,
,,,-00.000007460000,  58.38400,
,,,-00.000007450000,  56.96000,
,,,-00.000007440000,  56.96000,
,,,-00.000007430000,  58.38400,
,,,-00.000007420000,  58.38400,
,,,-00.000007410000,  56.96000,
,,,-00.000007400000,  56.96000,
,,,-00.000007390000,  58.38400,
,,,-00.000007380000,  56.96000,
,,,-00.000007370000,  56.96000,
,,,-00.000007360000,  58.38400,
,,,-00.000007350000,  55.53600,
,,,-00.000007340000,  56.96000,
,,,-00.000007330000,  56.96000,
,,,-00.000007320000,  55.53600,
,,,-00.000007310000,  54.11200,
,,,-00.000007300000,  54.11200,
,,,-00.000007290000,  54.11200,
,,,-00.000007280000,  54.11200,
,,,-00.000007270000,  52.68800,
,,,-00.000007260000,  52.68800,
,,,-00.000007250000,  55.53600,
,,,-00.000007240000,  52.68800,
,,,-00.000007230000,  54.11200,
,,,-00.000007220000,  55.53600,
,,,-00.000007210000,  55.53600,
,,,-00.000007200000,  54.11200,
,,,-00.000007190000,  52.68800,
,,,-00.000007180000,  52.68800,
,,,-00.000007170000,  51.26400,
