Velocidade da Luz/fase_liquido_1/ALL0003/F0003CH2.CSV

Record Length,2.500000e+03,,  -0.000012500000, -15.00800,
Sample Interval,1.000000e-08,,  -0.000012490000, -16.08000,
Trigger Point,1.250000000000e+03,,  -0.000012480000, -15.00800,
,,,  -0.000012470000, -12.86400,
,,,  -0.000012460000, -13.93600,
,,,  -0.000012450000, -15.00800,
Source,CH2,,  -0.000012440000, -15.00800,
Vertical Units,V,,  -0.000012430000, -15.00800,
Vertical Scale,2.680000e+01,,  -0.000012420000, -15.00800,
Vertical Offset,0.000000e+00,,  -0.000012410000, -12.86400,
Horizontal Units,s,,  -0.000012400000, -12.86400,
Horizontal Scale,2.500000e-06,,  -0.000012390000, -13.93600,
Pt Fmt,Y,,  -0.000012380000, -13.93600,
Yzero,0.000000e+00,,  -0.000012370000, -11.79200,
Probe Atten,1.000000e+01,,  -0.000012360000, -11.79200,
Model Number,TDS1012B,,  -0.000012350000, -16.08000,
Serial Number,C053081,,  -0.000012340000, -12.86400,
Firmware Version,FV:v22.01,,  -0.000012330000, -12.86400,
,,,-00.000012320000, -12.86400,
,,,-00.000012310000, -10.72000,
,,,-00.000012300000, -11.79200,
,,,-00.000012290000, -13.93600,
,,,-00.000012280000, -12.86400,
,,,-00.000012270000, -12.86400,
,,,-00.000012260000, -11.79200,
,,,-00.000012250000, -12.86400,
,,,-00.000012240000, -11.79200,
,,,-00.000012230000, -12.86400,
,,,-00.000012220000, -11.79200,
,,,-00.000012210000, -11.79200,
,,,-00.000012200000, -10.72000,
,,,-00.000012190000, -10.72000,
,,,-00.000012180000, -10.72000,
,,,-00.000012170000, -10.72000,
,,,-00.000012160000, -11.79200,
,,,-00.000012150000,  -9.64800,
,,,-00.000012140000,  -9.64800,
,,,-00.000012130000, -10.72000,
,,,-00.000012120000, -10.72000,
,,,-00.000012110000, -12.86400,
,,,-00.000012100000,  -9.64800,
,,,-00.000012090000,  -9.64800,
,,,-00.000012080000,  -9.64800,
,,,-00.000012070000, -10.72000,
,,,-00.000012060000, -10.72000,
,,,-00.000012050000, -10.72000,
,,,-00.000012040000,  -9.64800,
,,,-00.000012030000,  -7.50400,
,,,-00.000012020000,  -8.57600,
,,,-00.000012010000,  -9.64800,
,,,-00.000012000000,  -9.64800,
,,,-00.000011990000,  -9.64800,
,,,-00.000011980000,  -7.50400,
,,,-00.000011970000,  -9.64800,
,,,-00.000011960000,  -9.64800,
,,,-00.000011950000,  -7.50400,
,,,-00.000011940000,  -6.43200,
,,,-00.000011930000,  -6.43200,
,,,-00.000011920000,  -7.50400,
,,,-00.000011910000,  -6.43200,
,,,-00.000011900000,  -7.50400,
,,,-00.000011890000,  -5.36000,
,,,-00.000011880000,  -7.50400,
,,,-00.000011870000,  -7.50400,
,,,-00.000011860000,  -6.43200,
,,,-00.000011850000,  -7.50400,
,,,-00.000011840000,  -7.50400,
,,,-00.000011830000,  -6.43200,
,,,-00.000011820000,  -6.43200,
,,,-00.000011810000,  -4.28800,
,,,-00.000011800000,  -6.43200,
,,,-00.000011790000,  -6.43200,
,,,-00.000011780000,  -6.43200,
,,,-00.000011770000,  -4.28800,
,,,-00.000011760000,  -6.43200,
,,,-00.000011750000,  -4.28800,
,,,-00.000011740000,  -5.36000,
,,,-00.000011730000,  -5.36000,
,,,-00.000011720000,  -4.28800,
,,,-00.000011710000,  -3.21600,
,,,-00.000011700000,  -4.28800,
,,,-00.000011690000,  -4.28800,
,,,-00.000011680000,  -5.36000,
,,,-00.000011670000,  -3.21600,
,,,-00.000011660000,  -2.14400,
,,,-00.000011650000,  -4.28800,
,,,-00.000011640000,  -5.36000,
,,,-00.000011630000,  -5.36000,
,,,-00.000011620000,  -3.21600,
,,,-00.000011610000,  -3.21600,
,,,-00.000011600000,  -4.28800,
,,,-00.000011590000,  -3.21600,
,,,-00.000011580000,  -4.28800,
,,,-00.000011570000,  -2.14400,
,,,-00.000011560000,   0.00000,
,,,-00.000011550000,  -1.07200,
,,,-00.000011540000,  -3.21600,
,,,-00.000011530000,   0.00000,
,,,-00.000011520000,  -2.14400,
,,,-00.000011510000,  -4.28800,
,,,-00.000011500000,  -1.07200,
,,,-00.000011490000,  -1.07200,
,,,-00.000011480000,   0.00000,
,,,-00.000011470000,  -1.07200,
,,,-00.000011460000,   0.00000,
,,,-00.000011450000,  -1.07200,
,,,-00.000011440000,  -2.14400,
,,,-00.000011430000,   0.00000,
,,,-00.000011420000,   0.00000,
,,,-00.000011410000,   0.00000,
,,,-00.000011400000,   0.00000,
,,,-00.000011390000,  -2.14400,
,,,-00.000011380000,   0.00000,
,,,-00.000011370000,   0.00000,
,,,-00.000011360000,  -1.07200,
,,,-00.000011350000,   0.00000,
,,,-00.000011340000,   0.00000,
,,,-00.000011330000,   1.07200,
,,,-00.000011320000,   1.07200,
,,,-00.000011310000,   3.21600,
,,,-00.000011300000,  -1.07200,
,,,-00.000011290000,   0.00000,
,,,-00.000011280000,   2.14400,
,,,-00.000011270000,   0.00000,
,,,-00.000011260000,   3.21600,
,,,-00.000011250000,   3.21600,
,,,-00.000011240000,   3.21600,
,,,-00.000011230000,   3.21600,
,,,-00.000011220000,   2.14400,
,,,-00.000011210000,   1.07200,
,,,-00.000011200000,   2.14400,
,,,-00.000011190000,   3.21600,
,,,-00.000011180000,   1.07200,
,,,-00.000011170000,   2.14400,
,,,-00.000011160000,   2.14400,
,,,-00.000011150000,   2.14400,
,,,-00.000011140000,   2.14400,
,,,-00.000011130000,   5.36000,
,,,-00.000011120000,   1.07200,
,,,-00.000011110000,   6.43200,
,,,-00.000011100000,   4.28800,
,,,-00.000011090000,   4.28800,
,,,-00.000011080000,   4.28800,
,,,-00.000011070000,   5.36000,
,,,-00.000011060000,   4.28800,
,,,-00.000011050000,   6.43200,
,,,-00.000011040000,   4.28800,
,,,-00.000011030000,   5.36000,
,,,-00.000011020000,   5.36000,
,,,-00.000011010000,   6.43200,
,,,-00.000011000000,   7.50400,
,,,-00.000010990000,   4.28800,
,,,-00.000010980000,   4.28800,
,,,-00.000010970000,   5.36000,
,,,-00.000010960000,   8.57600,
,,,-00.000010950000,   7.50400,
,,,-00.000010940000,   5.36000,
,,,-00.000010930000,   6.43200,
,,,-00.000010920000,   6.43200,
,,,-00.000010910000,   6.43200,
,,,-00.000010900000,   4.28800,
,,,-00.000010890000,   7.50400,
,,,-00.000010880000,   5.36000,
,,,-00.000010870000,   7.50400,
,,,-00.000010860000,   8.57600,
,,,-00.000010850000,   6.43200,
,,,-00.000010840000,   6.43200,
,,,-00.000010830000,   7.50400,
,,,-00.000010820000,   7.50400,
,,,-00.000010810000,   8.57600,
,,,-00.000010800000,   7.50400,
,,,-00.000010790000,  10.72000,
,,,-00.000010780000,   8.57600,
,,,-00.000010770000,  10.72000,
,,,-00.000010760000,   8.57600,
,,,-00.000010750000,   9.64800,
,,,-00.000010740000,   9.64800,
,,,-00.000010730000,  10.72000,
,,,-00.000010720000,  10.72000,
,,,-00.000010710000,   9.64800,
,,,-00.000010700000,   9.64800,
,,,-00.000010690000,   8.57600,
,,,-00.000010680000,   8.57600,
,,,-00.000010670000,  11.79200,
,,,-00.000010660000,  10.72000,
,,,-00.000010650000,   8.57600,
,,,-00.000010640000,   8.57600,
,,,-00.000010630000,  10.72000,
,,,-00.000010620000,  11.79200,
,,,-00.000010610000,   9.64800,
,,,-00.000010600000,  11.79200,
,,,-00.000010590000,  10.72000,
,,,-00.000010580000,  10.72000,
,,,-00.000010570000,  12.86400,
,,,-00.000010560000,  11.79200,
,,,-00.000010550000,  13.93600,
,,,-00.000010540000,  12.86400,
,,,-00.000010530000,  10.72000,
,,,-00.000010520000,  11.79200,
,,,-00.000010510000,  10.72000,
,,,-00.000010500000,  13.93600,
,,,-00.000010490000,  12.86400,
,,,-00.000010480000,  13.93600,
,,,-00.000010470000,  12.86400,
,,,-00.000010460000,  13.93600,
,,,-00.000010450000,  11.79200,
,,,-00.000010440000,  12.86400,
,,,-00.000010430000,  12.86400,
,,,-00.000010420000,  13.93600,
,,,-00.000010410000,  13.93600,
,,,-00.000010400000,  13.93600,
,,,-00.000010390000,  13.93600,
,,,-00.000010380000,  13.93600,
,,,-00.000010370000,  13.93600,
,,,-00.000010360000,  16.08000,
,,,-00.000010350000,  15.00800,
,,,-00.000010340000,  16.08000,
,,,-00.000010330000,  15.00800,
,,,-00.000010320000,  15.00800,
,,,-00.000010310000,  13.93600,
,,,-00.000010300000,  13.93600,
,,,-00.000010290000,  15.00800,
,,,-00.000010280000,  15.00800,
,,,-00.000010270000,  15.00800,
,,,-00.000010260000,  17.15200,
,,,-00.000010250000,  15.00800,
,,,-00.000010240000,  17.15200,
,,,-00.000010230000,  16.08000,
,,,-00.000010220000,  16.08000,
,,,-00.000010210000,  16.08000,
,,,-00.000010200000,  17.15200,
,,,-00.000010190000,  17.15200,
,,,-00.000010180000,  16.08000,
,,,-00.000010170000,  17.15200,
,,,-00.000010160000,  16.08000,
,,,-00.000010150000,  17.15200,
,,,-00.000010140000,  17.15200,
,,,-00.000010130000,  18.22400,
,,,-00.000010120000,  17.15200,
,,,-00.000010110000,  16.08000,
,,,-00.000010100000,  16.08000,
,,,-00.000010090000,  16.08000,
,,,-00.000010080000,  16.08000,
,,,-00.000010070000,  18.22400,
,,,-00.000010060000,  16.08000,
,,,-00.000010050000,  19.29600,
,,,-00.000010040000,  18.22400,
,,,-00.000010030000,  19.29600,
,,,-00.000010020000,  19.29600,
,,,-00.000010010000,  19.29600,
,,,-00.000010000000,  18.22400,
,,,-00.000009990000,  18.22400,
,,,-00.000009980000,  18.22400,
,,,-00.000009970000,  20.36800,
,,,-00.000009960000,  19.29600,
,,,-00.000009950000,  17.15200,
,,,-00.000009940000,  20.36800,
,,,-00.000009930000,  18.22400,
,,,-00.000009920000,  19.29600,
,,,-00.000009910000,  20.36800,
,,,-00.000009900000,  19.29600,
,,,-00.000009890000,  19.29600,
,,,-00.000009880000,  18.22400,
,,,-00.000009870000,  17.15200,
,,,-00.000009860000,  18.22400,
,,,-00.000009850000,  18.22400,
,,,-00.000009840000,  20.36800,
,,,-00.000009830000,  20.36800,
,,,-00.000009820000,  19.29600,
,,,-00.000009810000,  20.36800,
,,,-00.000009800000,  22.51200,
,,,-00.000009790000,  20.36800,
,,,-00.000009780000,  19.29600,
,,,-00.000009770000,  20.36800,
,,,-00.000009760000,  20.36800,
,,,-00.000009750000,  22.51200,
,,,-00.000009740000,  21.44000,
,,,-00.000009730000,  23.58400,
,,,-00.000009720000,  19.29600,
,,,-00.000009710000,  18.22400,
,,,-00.000009700000,  20.36800,
,,,-00.000009690000,  22.51200,
,,,-00.000009680000,  22.51200,
,,,-00.000009670000,  22.51200,
,,,-00.000009660000,  20.36800,
,,,-00.000009650000,  20.36800,
,,,-00.000009640000,  21.44000,
,,,-00.000009630000,  22.51200,
,,,-00.000009620000,  19.29600,
,,,-00.000009610000,  21.44000,
,,,-00.000009600000,  21.44000,
,,,-00.000009590000,  23.58400,
,,,-00.000009580000,  22.51200,
,,,-00.000009570000,  21.44000,
,,,-00.000009560000,  22.51200,
,,,-00.000009550000,  22.51200,
,,,-00.000009540000,  22.51200,
,,,-00.000009530000,  22.51200,
,,,-00.000009520000,  21.44000,
,,,-00.000009510000,  24.65600,
,,,-00.000009500000,  22.51200,
,,,-00.000009490000,  22.51200,
,,,-00.000009480000,  21.44000,
,,,-00.000009470000,  21.44000,
,,,-00.000009460000,  23.58400,
,,,-00.000009450000,  22.51200,
,,,-00.000009440000,  24.65600,
,,,-00.000009430000,  22.51200,
,,,-00.000009420000,  23.58400,
,,,-00.000009410000,  22.51200,
,,,-00.000009400000,  22.51200,
,,,-00.000009390000,  25.72800,
,,,-00.000009380000,  24.65600,
,,,-00.000009370000,  23.58400,
,,,-00.000009360000,  24.65600,
,,,-00.000009350000,  22.51200,
,,,-00.000009340000,  22.51200,
,,,-00.000009330000,  24.65600,
,,,-00.000009320000,  23.58400,
,,,-00.000009310000,  24.65600,
,,,-00.000009300000,  22.51200,
,,,-00.000009290000,  24.65600,
,,,-00.000009280000,  23.58400,
,,,-00.000009270000,  25.72800,
,,,-00.000009260000,  23.58400,
,,,-00.000009250000,  23.58400,
,,,-00.000009240000,  24.65600,
,,,-00.000009230000,  23.58400,
,,,-00.000009220000,  23.58400,
,,,-00.000009210000,  24.65600,
,,,-00.000009200000,  23.58400,
,,,-00.000009190000,  24.65600,
,,,-00.000009180000,  24.65600,
,,,-00.000009170000,  23.58400,
,,,-00.000009160000,  23.58400,
,,,-00.000009150000,  24.65600,
,,,-00.000009140000,  25.72800,
,,,-00.000009130000,  24.65600,
,,,-00.000009120000,  23.58400,
,,,-00.000009110000,  24.65600,
,,,-00.000009100000,  22.51200,
,,,-00.000009090000,  23.58400,
,,,-00.000009080000,  23.58400,
,,,-00.000009070000,  23.58400,
,,,-00.000009060000,  24.65600,
,,,-00.000009050000,  23.58400,
,,,-00.000009040000,  25.72800,
,,,-00.000009030000,  24.65600,
,,,-00.000009020000,  25.72800,
,,,-00.000009010000,  22.51200,
,,,-00.000009000000,  23.58400,
,,,-00.000008990000,  22.51200,
,,,-00.000008980000,  24.65600,
,,,-00.000008970000,  23.58400,
,,,-00.000008960000,  22.51200,
,,,-00.000008950000,  23.58400,
,,,-00.000008940000,  24.65600,
,,,-00.000008930000,  24.65600,
,,,-00.000008920000,  24.65600,
,,,-00.000008910000,  23.58400,
,,,-00.000008900000,  23.58400,
,,,-00.000008890000,  24.65600,
,,,-00.000008880000,  24.65600,
,,,-00.000008870000,  23.58400,
,,,-00.000008860000,  23.58400,
,,,-00.000008850000,  25.72800,
,,,-00.000008840000,  21.44000,
,,,-00.000008830000,  23.58400,
,,,-00.000008820000,  24.65600,
,,,-00.000008810000,  26.80000,
,,,-00.000008800000,  24.65600,
,,,-00.000008790000,  21.44000,
,,,-00.000008780000,  23.58400,
,,,-00.000008770000,  23.58400,
,,,-00.000008760000,  23.58400,
,,,-00.000008750000,  24.65600,
,,,-00.000008740000,  26.80000,
,,,-00.000008730000,  23.58400,
,,,-00.000008720000,  24.65600,
,,,-00.000008710000,  24.65600,
,,,-00.000008700000,  25.72800,
,,,-00.000008690000,  25.72800,
,,,-00.000008680000,  25.72800,
,,,-00.000008670000,  23.58400,
,,,-00.000008660000,  22.51200,
,,,-00.000008650000,  23.58400,
,,,-00.000008640000,  23.58400,
,,,-00.000008630000,  23.58400,
,,,-00.000008620000,  24.65600,
,,,-00.000008610000,  22.51200,
,,,-00.000008600000,  23.58400,
,,,-00.000008590000,  26.80000,
,,,-00.000008580000,  24.65600,
,,,-00.000008570000,  23.58400,
,,,-00.000008560000,  24.65600,
,,,-00.000008550000,  24.65600,
,,,-00.000008540000,  23.58400,
,,,-00.000008530000,  22.51200,
,,,-00.000008520000,  23.58400,
,,,-00.000008510000,  24.65600,
,,,-00.000008500000,  25.72800,
,,,-00.000008490000,  23.58400,
,,,-00.000008480000,  21.44000,
,,,-00.000008470000,  21.44000,
,,,-00.000008460000,  22.51200,
,,,-00.000008450000,  23.58400,
,,,-00.000008440000,  24.65600,
,,,-00.000008430000,  22.51200,
,,,-00.000008420000,  22.51200,
,,,-00.000008410000,  23.58400,
,,,-00.000008400000,  23.58400,
,,,-00.000008390000,  23.58400,
,,,-00.000008380000,  22.51200,
,,,-00.000008370000,  22.51200,
,,,-00.000008360000,  22.51200,
,,,-00.000008350000,  22.51200,
,,,-00.000008340000,  22.51200,
,,,-00.000008330000,  21.44000,
,,,-00.000008320000,  22.51200,
,,,-00.000008310000,  23.58400,
,,,-00.000008300000,  22.51200,
,,,-00.000008290000,  24.65600,
,,,-00.000008280000,  24.65600,
,,,-00.000008270000,  22.51200,
,,,-00.000008260000,  23.58400,
,,,-00.000008250000,  22.51200,
,,,-00.000008240000,  22.51200,
,,,-00.000008230000,  23.58400,
,,,-00.000008220000,  23.58400,
,,,-00.000008210000,  23.58400,
,,,-00.000008200000,  22.51200,
,,,-00.000008190000,  21.44000,
,,,-00.000008180000,  22.51200,
,,,-00.000008170000,  21.44000,
,,,-00.000008160000,  22.51200,
,,,-00.000008150000,  22.51200,
,,,-00.000008140000,  21.44000,
,,,-00.000008130000,  20.36800,
,,,-00.000008120000,  23.58400,
,,,-00.000008110000,  21.44000,
,,,-00.000008100000,  21.44000,
,,,-00.000008090000,  21.44000,
,,,-00.000008080000,  22.51200,
,,,-00.000008070000,  20.36800,
,,,-00.000008060000,  21.44000,
,,,-00.000008050000,  20.36800,
,,,-00.000008040000,  20.36800,
,,,-00.000008030000,  22.51200,
,,,-00.000008020000,  19.29600,
,,,-00.000008010000,  21.44000,
,,,-00.000008000000,  21.44000,
,,,-00.000007990000,  21.44000,
,,,-00.000007980000,  20.36800,
,,,-00.000007970000,  19.29600,
,,,-00.000007960000,  21.44000,
,,,-00.000007950000,  22.51200,
,,,-00.000007940000,  21.44000,
,,,-00.000007930000,  20.36800,
,,,-00.000007920000,  18.22400,
,,,-00.000007910000,  20.36800,
,,,-00.000007900000,  19.29600,
,,,-00.000007890000,  18.22400,
,,,-00.000007880000,  20.36800,
,,,-00.000007870000,  20.36800,
,,,-00.000007860000,  19.29600,
,,,-00.000007850000,  20.36800,
,,,-00.000007840000,  19.29600,
,,,-00.000007830000,  20.36800,
,,,-00.000007820000,  21.44000,
,,,-00.000007810000,  20.36800,
,,,-00.000007800000,  19.29600,
,,,-00.000007790000,  21.44000,
,,,-00.000007780000,  19.29600,
,,,-00.000007770000,  20.36800,
,,,-00.000007760000,  20.36800,
,,,-00.000007750000,  20.36800,
,,,-00.000007740000,  18.22400,
,,,-00.000007730000,  17.15200,
,,,-00.000007720000,  17.15200,
,,,-00.000007710000,  19.29600,
,,,-00.000007700000,  20.36800,
,,,-00.000007690000,  19.29600,
,,,-00.000007680000,  17.15200,
,,,-00.000007670000,  15.00800,
,,,-00.000007660000,  17.15200,
,,,-00.000007650000,  18.22400,
,,,-00.000007640000,  17.15200,
,,,-00.000007630000,  18.22400,
,,,-00.000007620000,  16.08000,
,,,-00.000007610000,  18.22400,
,,,-00.000007600000,  18.22400,
,,,-00.000007590000,  17.15200,
,,,-00.000007580000,  17.15200,
,,,-00.000007570000,  17.15200,
,,,-00.000007560000,  16.08000,
,,,-00.000007550000,  16.08000,
,,,-00.000007540000,  15.00800,
,,,-00.000007530000,  17.15200,
,,,-00.000007520000,  18.22400,
,,,-00.000007510000,  17.15200,
,,,-00.000007500000,  15.00800,
,,,-00.000007490000,  18.22400,
,,,-00.000007480000,  16.08000,
,,,-00.000007470000,  16.08000,
,,,-00.000007460000,  16.08000,
,,,-00.000007450000,  15.00800,
,,,-00.000007440000,  15.00800,
,,,-00.000007430000,  16.08000,
,,,-00.000007420000,  16.08000,
,,,-00.000007410000,  15.00800,
,,,-00.000007400000,  16.08000,
,,,-00.000007390000,  16.08000,
,,,-00.000007380000,  16.08000,
,,,-00.000007370000,  16.08000,
,,,-00.000007360000,  13.93600,
,,,-00.000007350000,  15.00800,
,,,-00.000007340000,  13.93600,
,,,-00.000007330000,  15.00800,
,,,-00.000007320000,  15.00800,
,,,-00.000007310000,  15.00800,
,,,-00.000007300000,  13.93600,
,,,-00.000007290000,  16.08000,
,,,-00.000007280000,  10.72000,
,,,-00.000007270000,  13.93600,
,,,-00.000007260000,  12.86400,
,,,-00.000007250000,  13.93600,
,,,-00.000007240000,  12.86400,
,,,-00.000007230000,  13.93600,
,,,-00.000007220000,  12.86400,
,,,-00.000007210000,  15.00800,
,,,-00.000007200000,  11.79200,
,,,-00.000007190000,  11.79200,
,,,-00.000007180000,  10.72000,
,,,-00.000007170000,  11.79200,
,,,-00.000007160000,  13.93600,
,,,-00.000007150000,  12.86400,
,,,-00.000007140000,  12.86400,
,,,-00.000007130000,  10.72000,
,,,-00.000007120000,   9.64800,
,,,-00.000007110000,  10.72000,
,,,-00.000007100000,  11.79200,
,,,-00.000007090000,   9.64800,
,,,-00.000007080000,  10.72000,
,,,-00.000007070000,  10.72000,
,,,-00.000007060000,  10.72000,
,,,-00.000007050000,  10.72000,
,,,-00.000007040000,  11.79200,
,,,-00.000007030000,   8.57600,
,,,-00.000007020000,  10.72000,
,,,-00.000007010000,   8.57600,
,,,-00.000007000000,  12.86400,
,,,-00.000006990000,  10.72000,
,,,-00.000006980000,  10.72000,
,,,-00.000006970000,  10.72000,
,,,-00.000006960000,   9.64800,
,,,-00.000006950000,   9.64800,
,,,-00.000006940000,   9.64800,
,,,-00.000006930000,   9.64800,
,,,-00.000006920000,   8.57600,
,,,-00.000006910000,   8.57600,
,,,-00.000006900000,   8.57600,
,,,-00.000006890000,   8.57600,
,,,-00.000006880000,   7.50400,
,,,-00.000006870000,   7.50400,
,,,-00.000006860000,   8.57600,
,,,-00.000006850000,   8.57600,
,,,-00.000006840000,   6.43200,
,,,-00.000006830000,   7.50400,
,,,-00.000006820000,   7.50400,
,,,-00.000006810000,  10.72000,
,,,-00.000006800000,   8.57600,
,,,-00.000006790000,   8.57600,
,,,-00.000006780000,   5.36000,
,,,-00.000006770000,   8.57600,
,,,-00.000006760000,   8.57600,
,,,-00.000006750000,   6.43200,
,,,-00.000006740000,   5.36000,
,,,-00.000006730000,   5.36000,
,,,-00.000006720000,   4.28800,
,,,-00.000006710000,   8.57600,
,,,-00.000006700000,   5.36000,
,,,-00.000006690000,   5.36000,
,,,-00.000006680000,   2.14400,
,,,-00.000006670000,   6.43200,
,,,-00.000006660000,   4.28800,
,,,-00.000006650000,   6.43200,
,,,-00.000006640000,   5.36000,
,,,-00.000006630000,   2.14400,
,,,-00.000006620000,   2.14400,
,,,-00.000006610000,   5.36000,
,,,-00.000006600000,   6.43200,
,,,-00.000006590000,   3.21600,
,,,-00.000006580000,   3.21600,
,,,-00.000006570000,   5.36000,
,,,-00.000006560000,   4.28800,
,,,-00.000006550000,   4.28800,
,,,-00.000006540000,   5.36000,
,,,-00.000006530000,   3.21600,
,,,-00.000006520000,   3.21600,
,,,-00.000006510000,   3.21600,
,,,-00.000006500000,   1.07200,
,,,-00.000006490000,   2.14400,
,,,-00.000006480000,   2.14400,
,,,-00.000006470000,   2.14400,
,,,-00.000006460000,   2.14400,
,,,-00.000006450000,   0.00000,
,,,-00.000006440000,   1.07200,
,,,-00.000006430000,   1.07200,
,,,-00.000006420000,   1.07200,
,,,-00.000006410000,   0.00000,
,,,-00.000006400000,   1.07200,
,,,-00.000006390000,   1.07200,
,,,-00.000006380000,   1.07200,
,,,-00.000006370000,   2.14400,
